
$ORIGIN as51406.net.

$TTL 3600
@	IN SOA	ns1 hostmaster (
		2016071302 7200 1200 3600000 7200 )
	172800	IN NS		ns1.infonas.com.
	172800	IN NS		ns2.infonas.com.
	172800	IN NS		ns3.infonas.com.

		IN MX	10	sm

@		IN TXT  "v=spf1 mx ip4:80.88.242.27 a:sm.2connectbahrain.com -all"

;
; Miscellaneous
;
sm		IN A	80.88.242.27

;
; Routers
;
g0-1-v810.thn-c7304	IN A	80.88.244.14
g0-1-v536.nbb-c7304	IN A	80.88.240.2
g0-1.bix-c3845		IN A	80.88.240.1
g0-0-v807.thn-c7304	IN A	77.67.82.42
g0-0-v513.btl-c7304	IN A	80.88.240.122

;
; Switches
;
lo-vlan1001.nbb-noc-c3750	IN A	192.168.3.10
lo-vlan1001.nbb-bt-c3750	IN A	192.168.3.14
lo-vlan1001.nbb-bt-c3550	IN A	192.168.3.150


